%YAML 1.1
%TAG !u! tag:unity3d.com,2011:
--- !u!1 &190358
GameObject:
  m_ObjectHideFlags: 0
  m_CorrespondingSourceObject: {fileID: 0}
  m_PrefabInstance: {fileID: 0}
  m_PrefabAsset: {fileID: 0}
  serializedVersion: 6
  m_Component:
  - component: {fileID: 425500}
  - component: {fileID: 11452532}
  - component: {fileID: 11483292}
  - component: {fileID: 11479908}
  - component: {fileID: 11475714}
  m_Layer: 0
  m_Name: 3DBubble
  m_TagString: Untagged
  m_Icon: {fileID: 0}
  m_NavMeshLayer: 0
  m_StaticEditorFlags: 0
  m_IsActive: 1
--- !u!4 &425500
Transform:
  m_ObjectHideFlags: 0
  m_CorrespondingSourceObject: {fileID: 0}
  m_PrefabInstance: {fileID: 0}
  m_PrefabAsset: {fileID: 0}
  m_GameObject: {fileID: 190358}
  m_LocalRotation: {x: 0, y: 0, z: 0, w: 1}
  m_LocalPosition: {x: 6.4588304, y: 2.3636255, z: 4.9949718}
  m_LocalScale: {x: 1, y: 1, z: 1}
  m_Children:
  - {fileID: 141555010935204063}
  m_Father: {fileID: 0}
  m_RootOrder: 0
  m_LocalEulerAnglesHint: {x: 0, y: 0, z: 0}
--- !u!114 &11452532
MonoBehaviour:
  m_ObjectHideFlags: 0
  m_CorrespondingSourceObject: {fileID: 0}
  m_PrefabInstance: {fileID: 0}
  m_PrefabAsset: {fileID: 0}
  m_GameObject: {fileID: 190358}
  m_Enabled: 1
  m_EditorHideFlags: 0
  m_Script: {fileID: 11500000, guid: 30f0648873004f6498323b8ab4e639fc, type: 3}
  m_Name: 
  m_EditorClassIdentifier: 
  mPreviewObject: {fileID: 0}
  OnRedraw:
    m_PersistentCalls:
      m_Calls: []
  keepOrthoSize: 0
  paperEffectText: 0
  vRSpaceText: 0
  vRSpaceScale: 0.1
  maintainLabelSize: 0
  autoScrollHorizontally: 0
  horizontalScrolling: 0
  autoScrollVertically: 0
  verticalScrolling: 0
  raycastTarget: 1
  MousePan:
    m_PersistentCalls:
      m_Calls: []
  horizontalPanning: 0
  verticalPanning: 0
  heightRatio: 5
  widthRatio: 18.61
  PointClicked:
    m_PersistentCalls:
      m_Calls: []
  PointHovered:
    m_PersistentCalls:
      m_Calls: []
  NonHovered:
    m_PersistentCalls:
      m_Calls: []
  itemFormat: <?x>:<?y>
  Data:
    automaticVerticalViewGap: 0
    automaticVerticallView: 1
    automaticcHorizontaViewGap: 0
    automaticHorizontalView: 1
    horizontalViewSize: 10
    horizontalViewOrigin: 0
    verticalViewSize: 10
    verticalViewOrigin: 0
    mSerializedData:
    - Name: Player 1
      InitialData: []
      IsBezierCurve: 0
      SegmentsPerCurve: 10
      Depth: 5.559999942779541
      LineHoverPrefab: {fileID: 0}
      PointHoverPrefab: {fileID: 0}
      LinePrefab: {fileID: 0}
      Material: {fileID: 2100000, guid: 0dbd738f5c4b6544997e70d2a0981040, type: 2}
      LineTiling:
        EnableTiling: 0
        TileFactor: 0
      FillPrefab: {fileID: 0}
      InnerFill: {fileID: 2100000, guid: e673c7026b40bf243a8815fd70487fe0, type: 2}
      LineThickness: 0.18000000715255737
      StetchFill: 0
      DotPrefab: {fileID: 159358, guid: 5531d1ad319e2ed4986e55cd4e2d2041, type: 3}
      PointMaterial: {fileID: 2100000, guid: e673c7026b40bf243a8815fd70487fe0, type: 2}
      PointSize: 1.1100000143051147
      ViewOrder: 0
      AllowNonFunctionsBeta: 0
    - Name: Player 2
      InitialData: []
      IsBezierCurve: 0
      SegmentsPerCurve: 10
      Depth: 1.8200000524520874
      LineHoverPrefab: {fileID: 0}
      PointHoverPrefab: {fileID: 0}
      LinePrefab: {fileID: 0}
      Material: {fileID: 2100000, guid: 627263f457cbe574694381cdcb31957f, type: 2}
      LineTiling:
        EnableTiling: 0
        TileFactor: 0
      FillPrefab: {fileID: 0}
      InnerFill: {fileID: 0}
      LineThickness: 0.4099999964237213
      StetchFill: 0
      DotPrefab: {fileID: 159358, guid: 5531d1ad319e2ed4986e55cd4e2d2041, type: 3}
      PointMaterial: {fileID: 2100000, guid: 2050112d94c8c7046b36fe8f93c037e1, type: 2}
      PointSize: 1.1100000143051147
      ViewOrder: 1
      AllowNonFunctionsBeta: 0
  textCamera: {fileID: 0}
  textIdleDistance: 20
--- !u!114 &11483292
MonoBehaviour:
  m_ObjectHideFlags: 0
  m_CorrespondingSourceObject: {fileID: 0}
  m_PrefabInstance: {fileID: 0}
  m_PrefabAsset: {fileID: 0}
  m_GameObject: {fileID: 190358}
  m_Enabled: 1
  m_EditorHideFlags: 0
  m_Script: {fileID: 11500000, guid: 7598682dc3bb9174d9546fe226cab95a, type: 3}
  m_Name: 
  m_EditorClassIdentifier: 
  SimpleView: 1
  format: 0
  depth:
    Automatic: 0
    Value: 0
  mainDivisions:
    messure: 0
    unitsPerDivision: 0
    total: 3
    material: {fileID: 2100000, guid: e65ebfd404010624fb315bf790f7eebe, type: 2}
    materialTiling:
      EnableTiling: 0
      TileFactor: 100
    markBackLength:
      Automatic: 1
      Value: 0.5
    markLength:
      Automatic: 0
      Value: 0
    markDepth:
      Automatic: 1
      Value: 1.19
    markThickness: 0.1
    textPrefab: {fileID: 0}
    textPrefix: 
    textSuffix: 
    fractionDigits: 2
    fontSize: 12
    fontSharpness: 3
    textDepth: 0
    textSeperation: -0.55
    alignment: 1
  subDivisions:
    messure: 0
    unitsPerDivision: 0
    total: 3
    material: {fileID: 2100000, guid: a47d052d9a1992e4495892ee553abd96, type: 2}
    materialTiling:
      EnableTiling: 0
      TileFactor: 100
    markBackLength:
      Automatic: 1
      Value: 0.5
    markLength:
      Automatic: 0
      Value: 0
    markDepth:
      Automatic: 1
      Value: 1.19
    markThickness: 0.1
    textPrefab: {fileID: 0}
    textPrefix: 
    textSuffix: 
    fractionDigits: 2
    fontSize: 12
    fontSharpness: 3
    textDepth: 0
    textSeperation: -0.55
    alignment: 1
--- !u!114 &11479908
MonoBehaviour:
  m_ObjectHideFlags: 0
  m_CorrespondingSourceObject: {fileID: 0}
  m_PrefabInstance: {fileID: 0}
  m_PrefabAsset: {fileID: 0}
  m_GameObject: {fileID: 190358}
  m_Enabled: 1
  m_EditorHideFlags: 0
  m_Script: {fileID: 11500000, guid: 08395b16192f9114e8ad4953e48f90bd, type: 3}
  m_Name: 
  m_EditorClassIdentifier: 
  SimpleView: 1
  format: 0
  depth:
    Automatic: 1
    Value: 0
  mainDivisions:
    messure: 0
    unitsPerDivision: 0
    total: 3
    material: {fileID: 2100000, guid: e65ebfd404010624fb315bf790f7eebe, type: 2}
    materialTiling:
      EnableTiling: 0
      TileFactor: 100
    markBackLength:
      Automatic: 1
      Value: 0.5
    markLength:
      Automatic: 0
      Value: 0
    markDepth:
      Automatic: 0
      Value: 0.96
    markThickness: 0.1
    textPrefab: {fileID: 0}
    textPrefix: 
    textSuffix: 
    fractionDigits: 2
    fontSize: 12
    fontSharpness: 3
    textDepth: 0
    textSeperation: -0.7
    alignment: 1
  subDivisions:
    messure: 0
    unitsPerDivision: 0
    total: 3
    material: {fileID: 2100000, guid: a47d052d9a1992e4495892ee553abd96, type: 2}
    materialTiling:
      EnableTiling: 0
      TileFactor: 100
    markBackLength:
      Automatic: 1
      Value: 0.5
    markLength:
      Automatic: 0
      Value: 0
    markDepth:
      Automatic: 0
      Value: 0.96
    markThickness: 0.1
    textPrefab: {fileID: 0}
    textPrefix: 
    textSuffix: 
    fractionDigits: 2
    fontSize: 12
    fontSharpness: 3
    textDepth: 0
    textSeperation: -0.7
    alignment: 1
--- !u!114 &11475714
MonoBehaviour:
  m_ObjectHideFlags: 0
  m_CorrespondingSourceObject: {fileID: 0}
  m_PrefabInstance: {fileID: 0}
  m_PrefabAsset: {fileID: 0}
  m_GameObject: {fileID: 190358}
  m_Enabled: 0
  m_EditorHideFlags: 0
  m_Script: {fileID: 11500000, guid: 5eb3e26fd06b41d4baa022120f5cd617, type: 3}
  m_Name: 
  m_EditorClassIdentifier: 
  textPrefab: {fileID: 114000011523374616, guid: 7c86db16ee4151f4d9ed59479b2fdfbf,
    type: 3}
  textFormat:
    prefix: 
    suffix: 
    customFormat: 
  fontSize: 14
  fontSharpness: 1
  seperation: 1.11
  location:
    Breadth: 0
    Depth: -1
  alignment: 0
  fractionDigits: 0
--- !u!1 &1684870864130651451
GameObject:
  m_ObjectHideFlags: 0
  m_CorrespondingSourceObject: {fileID: 0}
  m_PrefabInstance: {fileID: 0}
  m_PrefabAsset: {fileID: 0}
  serializedVersion: 6
  m_Component:
  - component: {fileID: 141555010935204063}
  - component: {fileID: 6298439362860395137}
  - component: {fileID: 7520409371057893246}
  m_Layer: 0
  m_Name: textController
  m_TagString: EditorOnly
  m_Icon: {fileID: 0}
  m_NavMeshLayer: 0
  m_StaticEditorFlags: 0
  m_IsActive: 1
--- !u!224 &141555010935204063
RectTransform:
  m_ObjectHideFlags: 0
  m_CorrespondingSourceObject: {fileID: 0}
  m_PrefabInstance: {fileID: 0}
  m_PrefabAsset: {fileID: 0}
  m_GameObject: {fileID: 1684870864130651451}
  m_LocalRotation: {x: 0, y: 0, z: 0, w: 1}
  m_LocalPosition: {x: 0, y: 0, z: 0}
  m_LocalScale: {x: 1, y: 1, z: 1}
  m_Children: []
  m_Father: {fileID: 425500}
  m_RootOrder: 0
  m_LocalEulerAnglesHint: {x: 0, y: 0, z: 0}
  m_AnchorMin: {x: 0.5, y: 0.5}
  m_AnchorMax: {x: 0.5, y: 0.5}
  m_AnchoredPosition: {x: 0, y: 0}
  m_SizeDelta: {x: 100, y: 100}
  m_Pivot: {x: 0.5, y: 0.5}
--- !u!114 &6298439362860395137
MonoBehaviour:
  m_ObjectHideFlags: 0
  m_CorrespondingSourceObject: {fileID: 0}
  m_PrefabInstance: {fileID: 0}
  m_PrefabAsset: {fileID: 0}
  m_GameObject: {fileID: 1684870864130651451}
  m_Enabled: 1
  m_EditorHideFlags: 0
  m_Script: {fileID: 11500000, guid: 55b5a59897c650342a9b23ff348a9992, type: 3}
  m_Name: 
  m_EditorClassIdentifier: 
--- !u!114 &7520409371057893246
MonoBehaviour:
  m_ObjectHideFlags: 0
  m_CorrespondingSourceObject: {fileID: 0}
  m_PrefabInstance: {fileID: 0}
  m_PrefabAsset: {fileID: 0}
  m_GameObject: {fileID: 1684870864130651451}
  m_Enabled: 1
  m_EditorHideFlags: 0
  m_Script: {fileID: 11500000, guid: f8c8bf670921e114bbea10f451c86392, type: 3}
  m_Name: 
  m_EditorClassIdentifier: 
  Camera: {fileID: 0}
  PlaneDistance: 20
